2000-09-07 14:07:41,508 [main] DEBUG MyApp - Entering application.
                                             the debug information for start-up
2000-09-07 14:07:41,608 [main] INFO  MyApp - Exiting application.
